C:\Users\user\IdeaProjects\test_emails\src\test\java\org\example\test\CommonConditions.java
C:\Users\user\IdeaProjects\test_emails\src\test\java\org\example\model\User.java
C:\Users\user\IdeaProjects\test_emails\src\test\java\org\example\page\EmailRecipientLetterPage.java
C:\Users\user\IdeaProjects\test_emails\src\test\java\org\example\test\EmailsSendTest.java
C:\Users\user\IdeaProjects\test_emails\src\test\java\org\example\page\EmailRecipientLoginPage.java
C:\Users\user\IdeaProjects\test_emails\src\test\java\org\example\page\AbstractPage.java
C:\Users\user\IdeaProjects\test_emails\src\test\java\org\example\util\TestListener.java
C:\Users\user\IdeaProjects\test_emails\src\test\java\org\example\service\TestDataReader.java
C:\Users\user\IdeaProjects\test_emails\src\test\java\org\example\test\EmailsLoginTest.java
C:\Users\user\IdeaProjects\test_emails\src\test\java\org\example\page\EmailUserPage.java
C:\Users\user\IdeaProjects\test_emails\src\test\java\org\example\page\EmailRecipientUserPage.java
C:\Users\user\IdeaProjects\test_emails\src\test\java\org\example\driver\DriverSingleton.java
C:\Users\user\IdeaProjects\test_emails\src\test\java\org\example\service\UserCreator.java
C:\Users\user\IdeaProjects\test_emails\src\test\java\org\example\page\EmailLoginPage.java
